%YAML 1.1
%TAG !u! tag:unity3d.com,2011:
--- !u!74 &7400000
AnimationClip:
  m_ObjectHideFlags: 0
  m_PrefabParentObject: {fileID: 0}
  m_PrefabInternal: {fileID: 0}
  m_Name: UnicornCursor
  serializedVersion: 6
  m_Legacy: 0
  m_Compressed: 0
  m_UseHighQualityCurve: 1
  m_RotationCurves: []
  m_CompressedRotationCurves: []
  m_EulerCurves: []
  m_PositionCurves: []
  m_ScaleCurves: []
  m_FloatCurves: []
  m_PPtrCurves:
  - curve:
    - time: 0
      value: {fileID: 21300000, guid: 10ab6dda10e708444863fe961745a233, type: 3}
    - time: 0.083333336
      value: {fileID: 21300000, guid: 5c0a23c1bb64d4543a2cfdb975acd78b, type: 3}
    - time: 0.16666667
      value: {fileID: 21300000, guid: 1c06ffe30694b5344a85abdd99a930b7, type: 3}
    - time: 0.25
      value: {fileID: 21300000, guid: b587e41f0b1b2f2439869383273563a9, type: 3}
    - time: 0.33333334
      value: {fileID: 21300000, guid: 2634b1697446ad74da708f2f5af1960f, type: 3}
    - time: 0.41666666
      value: {fileID: 21300000, guid: a69e795b121f3d24d8cae5bf37206ea8, type: 3}
    - time: 0.5
      value: {fileID: 21300000, guid: 6db6ca46c7f354a4a82e022c259a61ed, type: 3}
    - time: 0.5833333
      value: {fileID: 21300000, guid: fcdc7ffe46b93e84790d8db0c7d190b2, type: 3}
    - time: 0.6666667
      value: {fileID: 21300000, guid: 3596da3f24225854086ec5d67942f109, type: 3}
    attribute: m_Sprite
    path: 
    classID: 212
    script: {fileID: 0}
  m_SampleRate: 12
  m_WrapMode: 0
  m_Bounds:
    m_Center: {x: 0, y: 0, z: 0}
    m_Extent: {x: 0, y: 0, z: 0}
  m_ClipBindingConstant:
    genericBindings:
    - serializedVersion: 2
      path: 0
      attribute: 0
      script: {fileID: 0}
      typeID: 212
      customType: 23
      isPPtrCurve: 1
    pptrCurveMapping:
    - {fileID: 21300000, guid: 10ab6dda10e708444863fe961745a233, type: 3}
    - {fileID: 21300000, guid: 5c0a23c1bb64d4543a2cfdb975acd78b, type: 3}
    - {fileID: 21300000, guid: 1c06ffe30694b5344a85abdd99a930b7, type: 3}
    - {fileID: 21300000, guid: b587e41f0b1b2f2439869383273563a9, type: 3}
    - {fileID: 21300000, guid: 2634b1697446ad74da708f2f5af1960f, type: 3}
    - {fileID: 21300000, guid: a69e795b121f3d24d8cae5bf37206ea8, type: 3}
    - {fileID: 21300000, guid: 6db6ca46c7f354a4a82e022c259a61ed, type: 3}
    - {fileID: 21300000, guid: fcdc7ffe46b93e84790d8db0c7d190b2, type: 3}
    - {fileID: 21300000, guid: 3596da3f24225854086ec5d67942f109, type: 3}
  m_AnimationClipSettings:
    serializedVersion: 2
    m_AdditiveReferencePoseClip: {fileID: 0}
    m_AdditiveReferencePoseTime: 0
    m_StartTime: 0
    m_StopTime: 0.75
    m_OrientationOffsetY: 0
    m_Level: 0
    m_CycleOffset: 0
    m_HasAdditiveReferencePose: 0
    m_LoopTime: 1
    m_LoopBlend: 0
    m_LoopBlendOrientation: 0
    m_LoopBlendPositionY: 0
    m_LoopBlendPositionXZ: 0
    m_KeepOriginalOrientation: 0
    m_KeepOriginalPositionY: 1
    m_KeepOriginalPositionXZ: 0
    m_HeightFromFeet: 0
    m_Mirror: 0
  m_EditorCurves: []
  m_EulerEditorCurves: []
  m_HasGenericRootTransform: 0
  m_HasMotionFloatCurves: 0
  m_GenerateMotionCurves: 0
  m_Events: []
